<svg version="1.1" viewBox="0 0 24 24" xmlns="http://www.w3.org/2000/svg">
 <path d="m19.018 21.858v-6.4243h2.1413v8.5659h-19.26v-8.5659h2.1413v6.4243h14.977" fill="#bcbbbc"/>
 <path d="m6.185 19.717h10.707v-2.1413h-10.707zm9.5957-19.717-1.7182 1.2779 6.3898 8.5908 1.7182-1.2779zm-5.311 5.0648 8.227 6.8518 1.3704-1.6455-8.227-6.8517zm-2.6858 4.7615 9.7056 4.5201 0.90401-1.9411-9.7056-4.5201zm-1.3863 5.0169 10.478 2.2021 0.4404-2.0956-10.478-2.2021-0.4404 2.0956" fill="#f48023"/>
</svg>
